<svg xmlns="http://www.w3.org/2000/svg" width="20" height="20" viewBox="0 0 20 20">
    <g fill="none" fill-rule="evenodd">
        <circle cx="10" cy="10" r="10" fill="#005B94"/>
        <path fill="#FFF" fill-rule="nonzero" d="M6.7 9.1c-.491-.485-1.283-.48-1.768.012-.485.49-.48 1.282.012 1.767l3.176 3.136c.523.515 1.375.472 1.842-.094l5.157-6.25c.44-.533.364-1.32-.168-1.76-.533-.44-1.32-.364-1.76.168l-4.287 5.196L6.7 9.1z"/>
    </g>
</svg>
